<?xml version="1.0" standalone="no"?>
<!DOCTYPE svg PUBLIC "-//W3C//DTD SVG 1.1//EN" "http://www.w3.org/Graphics/SVG/1.1/DTD/svg11.dtd" >
<!--
2019-11-13: Created with FontForge (http://fontforge.org)
-->
<svg xmlns="http://www.w3.org/2000/svg" xmlns:xlink="http://www.w3.org/1999/xlink" version="1.1">
<metadata>
Created by FontForge 20170731 at Wed Nov 13 21:40:30 2019
 By root

</metadata>
<defs>
<font id="Flaticon" horiz-adv-x="512" >
  <font-face 
    font-family="Flaticon"
    font-weight="400"
    font-stretch="normal"
    units-per-em="512"
    panose-1="2 0 5 3 0 0 0 0 0 0"
    ascent="448"
    descent="-64"
    bbox="-0.000594062 -64.0049 512.001 453.381"
    underline-thickness="25.6"
    underline-position="-51.2"
    unicode-range="U+0020-F127"
  />
    <missing-glyph />
    <glyph glyph-name="space" unicode=" " horiz-adv-x="200" 
 />
    <glyph glyph-name="004-dinner" unicode="&#xf103;" 
d="M264.181 371.091c93.6465 0 169.562 -75.915 169.562 -169.561c0 -93.6465 -75.915 -169.562 -169.562 -169.562c-93.6455 0 -169.561 75.915 -169.561 169.562c0 93.6455 75.915 169.561 169.561 169.561zM264.18 72.8711c70.9434 0 128.658 57.7158 128.658 128.658
c0 70.9414 -57.7158 128.657 -128.658 128.657c-70.9414 0 -128.657 -57.7158 -128.657 -128.657c0 -70.9424 57.7158 -128.658 128.657 -128.658zM264.18 295.701c51.9277 0 94.1709 -42.2451 94.1709 -94.1709c0 -51.9268 -42.2441 -94.1709 -94.1709 -94.1709
c-51.9258 0 -94.1709 42.2441 -94.1709 94.1709c0 51.9258 42.2451 94.1709 94.1709 94.1709zM501.315 187.313c6.43359 -66.4434 10.6846 -159.386 10.6846 -170.268c0 -17.1406 -10.5508 -31.0381 -23.5664 -31.0381c-13.0146 0 -23.5654 13.8965 -23.5654 31.0381
c0 10.8809 4.25098 103.808 10.6836 170.251h-6.52539c-8.64648 0 -15.6543 7.00879 -15.6543 15.6543v75.3779c0 42.5469 13.9141 83.9268 39.6221 117.83c1.20312 1.58398 3.28223 2.22461 5.16602 1.59082c1.88574 -0.634766 3.15527 -2.40234 3.15527 -4.38965v-206.047
zM68.417 228.157c-8.48438 -5.13965 -13.2207 -14.7588 -12.126 -24.6182c7.3623 -66.3584 12.3633 -174.693 12.3633 -186.494c0 -17.1406 -10.5518 -31.0381 -23.5664 -31.0381s-23.5654 13.8965 -23.5654 31.0381c0 11.8008 5 120.136 12.3623 186.494
c1.09375 9.86426 -3.6377 19.4756 -12.126 24.6172c-13.043 7.90039 -21.7588 22.2236 -21.7588 38.5859l6.46289 105.622c0.246094 4.02539 3.58301 7.16504 7.61719 7.16504c4.36035 0 7.83789 -3.65332 7.62207 -8.01074l-4.20117 -84.709
c0 -4.75977 3.86035 -8.62012 8.62109 -8.62012c4.75977 0 8.62109 3.8584 8.62109 8.62012l2.09863 84.6748c0.112305 4.47363 3.77051 8.04395 8.24707 8.04395c4.47754 0 8.13574 -3.56934 8.24707 -8.04395l2.09863 -84.6748
c0 -4.75977 3.86035 -8.62012 8.62109 -8.62012s8.62109 3.8584 8.62109 8.62012l-4.20117 84.709c-0.216797 4.35547 3.25977 8.01074 7.62207 8.01074c4.03418 0 7.37109 -3.13965 7.61816 -7.16504l6.45996 -105.621c0 -16.3623 -8.7168 -30.6865 -21.7588 -38.5859z" />
    <glyph glyph-name="008-scooter" unicode="&#xf107;" 
d="M422 343c0 -8.28906 -6.71094 -15 -15 -15h-10.793l19.8789 -79.4844c-4.32422 -2.80469 -8.89844 -5.21094 -12.8516 -8.58203c-26.207 -22.3555 -41.2344 -54.9297 -41.2344 -89.3555v-62.5781h-152v15c0 57.8906 -47.1094 105 -105 105h-30
c-28.6172 0 -54.5469 -11.5742 -73.5039 -30.2109c3.34766 23.4219 14.0859 44.4219 30.2539 60.2109h184.059l20.0039 -60h66.1875v67.9258c0 31.918 12.2383 61.4688 33.1016 83.875c-14.1562 3.91016 -25.4453 14.4766 -30.3398 28.1992h-49.7617
c-8.28906 0 -15 6.71094 -15 15s6.71094 15 15 15h49.7617c6.21484 17.4219 22.707 30 42.2383 30h60c8.28906 0 15 -6.71094 15 -15v-60zM422 343zM452 148c33.1367 0 60 -26.8633 60 -60s-26.8633 -60 -60 -60s-60 26.8633 -60 60s26.8633 60 60 60zM452 73
c8.28516 0 15 6.71484 15 15s-6.71484 15 -15 15s-15 -6.71484 -15 -15s6.71484 -15 15 -15zM452 73zM30 268c-16.5703 0 -30 13.4336 -30 30c0 16.5703 13.4297 30 30 30h165c24.8516 0 45 -20.1484 45 -45c0 -8.28516 -6.71484 -15 -15 -15h-195zM30 268zM31.5195 358
c5.97656 29.3242 29.1641 52.3555 58.4805 58.3555v16.6445c0 8.28906 6.71094 15 15 15s15 -6.71094 15 -15v-16.6445c29.3164 -6 52.5039 -29.0312 58.4805 -58.3555h-146.961zM31.5195 358zM15 88c-8.28516 0 -15 6.71484 -15 15c0 41.4219 33.5781 75 75 75h30
c41.4219 0 75 -33.5781 75 -75v-15h-165zM15 88zM90 28c-22.1523 0 -41.2852 12.1406 -51.6797 30h103.359c-10.3945 -17.8594 -29.5273 -30 -51.6797 -30zM90 28zM457.027 234.938c31.5938 -8.82812 54.9727 -37.5664 54.9727 -71.9375
c0 -2.51562 -0.773438 -4.78125 -1.86719 -6.86719c-15.7305 13.4414 -35.8672 21.8672 -58.1328 21.8672c-22.9102 0 -43.6172 -8.86719 -59.5195 -23.0117c1.22266 23.9648 11.8516 46.4414 30.2227 62.1211c9.84375 8.40234 21.5703 14.168 34.3242 17.8281z
M457.027 234.938z" />
    <glyph glyph-name="024-placeholder-filled-tool-shape-for-maps" unicode="&#xf116;" 
d="M255.783 448c106.648 0 192.921 -86.7061 193.354 -192.921c0 -63.7246 -35.1152 -124.419 -67.6309 -176.881c-30.3467 -48.5557 -66.3301 -94.0762 -107.082 -134.395c-10.4004 -10.4004 -26.8789 -10.4004 -36.8496 0
c-46.3877 47.6885 -86.2725 101.441 -119.655 159.105c-27.3115 46.3877 -55.0576 96.6777 -55.0576 152.17c0 106.648 86.2725 192.921 192.921 192.921zM255.783 143.228c64.5957 0 117.054 52.0244 117.054 117.054s-52.458 117.053 -117.054 117.053
s-117.054 -52.457 -117.054 -117.053c0 -64.5967 52.458 -117.054 117.054 -117.054z" />
    <glyph glyph-name="014-review" unicode="&#xf10d;" 
d="M479.461 255.02c17.9414 0 32.5391 -14.5938 32.5391 -32.5391v-149.676c0 -17.9453 -14.5977 -32.5391 -32.5391 -32.5391h-12.1133l-13.4531 -53.7969c-1.40625 -5.625 -5.85938 -9.98047 -11.5117 -11.2578c-1.12891 -0.253906 -2.26562 -0.378906 -3.39062 -0.378906
c-4.52734 0 -8.89453 2.00391 -11.8516 5.58594l-49.3711 59.8477h-103.551c-17.9414 0 -32.5391 14.5977 -32.5391 32.5391v29.6914h116.992c40.0312 0 72.5977 32.5664 72.5977 72.5977v79.9258h48.1914zM479.461 255.02zM358.672 448
c23.0898 0 41.875 -18.7852 41.875 -41.875v-231.031c0 -23.0898 -18.7852 -41.8711 -41.875 -41.8711h-158.203l-78.7148 -95.4102c-2.95312 -3.58203 -7.32031 -5.58594 -11.8477 -5.58984c-1.12891 0 -2.26172 0.125 -3.39062 0.378906
c-5.65625 1.28125 -10.1094 5.63281 -11.5117 11.2617l-22.3438 89.3594h-30.7852c-23.0898 0 -41.875 18.7812 -41.875 41.8711v231.031c0 23.0898 18.7852 41.875 41.875 41.875h316.797zM290.492 301.234c4.1875 4.08203 5.69531 10.1836 3.88672 15.7461
c-1.80469 5.5625 -6.61328 9.61719 -12.4023 10.457l-46.9375 6.82031l-20.9922 42.5352c-2.58594 5.24219 -7.92578 8.5625 -13.7734 8.5625s-11.1875 -3.32031 -13.7773 -8.5625l-20.9922 -42.5352l-46.9375 -6.82031
c-5.78516 -0.839844 -10.5938 -4.89453 -12.4023 -10.457c-1.80469 -5.55859 -0.296875 -11.6641 3.88672 -15.7461l33.9688 -33.1055l-8.01953 -46.75c-0.988281 -5.76562 1.37891 -11.5898 6.10938 -15.0273c4.73438 -3.4375 11.0039 -3.89062 16.1797 -1.16797
l41.9844 22.0703l41.9805 -22.0703c2.25 -1.18359 4.70312 -1.76562 7.14844 -1.76562c3.1875 0 6.35547 0.988281 9.03125 2.93359c4.73047 3.4375 7.10156 9.26172 6.11328 15.0273l-8.01953 46.7461zM290.492 301.234zM211.062 313.418
c2.23828 -4.53516 6.5625 -7.67578 11.5664 -8.40625l24.125 -3.50391l-17.457 -17.0195c-3.62109 -3.52734 -5.27344 -8.61328 -4.41797 -13.5977l4.12109 -24.0273l-21.5781 11.3438c-4.47656 2.35156 -9.82422 2.35156 -14.2969 0l-21.582 -11.3438l4.12109 24.0273
c0.855469 4.98438 -0.796875 10.0703 -4.41797 13.5977l-17.457 17.0195l24.1289 3.50391c5.00391 0.730469 9.32812 3.87109 11.5664 8.40625l10.7891 21.8594zM211.062 313.418z" />
    <glyph glyph-name="029-tripadvisor" unicode="&#xf11b;" 
d="M126.733 343.947c36.8008 0 66.7383 -29.9355 66.7383 -66.7363s-29.9375 -66.7422 -66.7383 -66.7422c-36.7979 0 -66.7363 29.9414 -66.7363 66.7422s29.9385 66.7363 66.7363 66.7363zM126.733 262.502c8.11133 0 14.709 6.59766 14.709 14.709
c0 8.1084 -6.59766 14.71 -14.709 14.71s-14.71 -6.60156 -14.71 -14.71c0 -8.11133 6.59863 -14.709 14.71 -14.709zM126.733 262.502zM352.144 343.947c36.8008 0 66.7393 -29.9355 66.7393 -66.7363s-29.9414 -66.7422 -66.7393 -66.7422
c-36.8008 0 -66.7422 29.9414 -66.7422 66.7422s29.9414 66.7363 66.7422 66.7363zM352.81 262.502c8.11133 0 14.71 6.59766 14.71 14.709c0 8.1084 -6.59863 14.71 -14.71 14.71c-8.11426 0 -14.7129 -6.60156 -14.7129 -14.71
c0 -8.11133 6.59863 -14.709 14.7129 -14.709zM352.81 262.502zM480.469 403.944l-29.6943 -47.249c17.5654 -21.7568 28.1055 -49.4111 28.1055 -79.4844c0 -69.8828 -56.8564 -126.733 -126.736 -126.733c-36.126 0 -68.7656 15.1914 -91.874 39.5225l-20.8301 -48.082
l-20.835 48.082c-23.1064 -24.3311 -55.7451 -39.5225 -91.8711 -39.5225c-69.877 0 -126.733 56.8506 -126.733 126.733c0 30.8652 11.0996 59.1904 29.5049 81.1934l-28.6191 45.54h105.023c32.8945 30.6104 83.4277 49.4365 133.53 49.4365
c52.2324 0 101.622 -18.3867 133.587 -49.4365h107.442zM126.733 178.534c54.4102 0 98.6738 44.2666 98.6738 98.6768c0 54.4111 -44.2637 98.6719 -98.6738 98.6719c-54.4111 0 -98.6719 -44.2607 -98.6719 -98.6719c0 -54.4102 44.2607 -98.6768 98.6719 -98.6768z
M450.818 277.211c0 54.4053 -44.2637 98.6719 -98.6748 98.6719c-54.4072 0 -98.6777 -44.2666 -98.6777 -98.6719c0 -54.4131 44.2705 -98.6768 98.6777 -98.6768c54.4111 0 98.6748 44.2666 98.6748 98.6768zM450.818 277.211z" />
    <glyph glyph-name="032-fireplace" unicode="&#xf11e;" 
d="M479.964 7.11035h32.0361v-33.3916h-512v33.3916h32.0371v301.916h-31.9717v101.256h511.869v-101.255h-31.9707v-301.916v-0.000976562zM381.592 7.11133v189.817c-26.499 3.79492 -46.7217 16.0986 -64.9189 27.1709
c-19.9082 12.1143 -37.0996 22.5742 -60.6719 22.5742s-40.7646 -10.4609 -60.6719 -22.5742c-18.1963 -11.0713 -38.4189 -23.377 -64.9189 -27.1709v-189.816h44.9395c-7.0127 10.4189 -10.9189 22.9121 -11.3975 36.7949
c-0.916016 26.584 7.72266 59.3135 8.09082 60.6934l6.37891 23.916l36.6387 -27.5459l40.9395 59.0801l40.9404 -59.0811l36.6377 27.5459l6.37891 -23.916c0.369141 -1.38086 9.00586 -34.1104 8.08984 -60.6934c-0.476562 -13.8838 -4.38379 -26.377 -11.3955 -36.7949
h44.9404z" />
    <glyph glyph-name="026-facebook-logo" unicode="&#xf118;" 
d="M460.8 448c28.1602 0 51.2002 -23.04 51.2002 -51.2002v-409.6c0 -28.1602 -23.04 -51.2002 -51.2002 -51.2002h-409.6c-28.1602 0 -51.2002 23.04 -51.2002 51.2002v409.6c0 28.1602 23.04 51.2002 51.2002 51.2002h409.6zM435.2 396.8h-64
c-48.6406 0 -89.6006 -40.96 -89.6006 -89.5996v-64h-51.1992v-76.7998h51.1992v-179.2h76.8008v179.2h76.7998v76.7998h-76.7998v51.2002c0 15.3594 10.2393 25.5996 25.5996 25.5996h51.2002v76.7998z" />
    <glyph glyph-name="022-teamwork" unicode="&#xf114;" 
d="M191.996 383.996c0 35.3457 28.6523 63.999 63.998 63.999s63.999 -28.6533 63.999 -63.999s-28.6533 -63.999 -63.999 -63.999s-63.998 28.6533 -63.998 63.999zM351.865 146.048c0.607422 -4.5752 -0.800781 -9.18359 -3.87207 -12.6074
c-3.04004 -3.45605 -7.39258 -5.43945 -12 -5.43945h-17.248l-13.3438 -162.909c-1.66406 -16.6719 -15.3594 -29.0879 -31.8711 -29.0879h-35.0391c-16.5117 0 -30.2402 12.416 -31.8398 28.7998l-13.376 163.197h-17.2793c-4.6084 0 -8.95996 1.9834 -12 5.43945
c-3.04004 3.42383 -4.44824 8.03223 -3.87207 12.5762l14.5596 113.598c1.60059 16 15.2959 28.3838 31.8076 28.3838h17.5039c4.25586 0 8.31934 -1.69629 11.3281 -4.67188l20.6709 -20.6719l20.6719 20.6719c3.00781 2.97559 7.07227 4.67188 11.3281 4.67188h17.5352
c16.4805 0 30.1758 -12.3838 31.8076 -28.7998zM351.993 383.996c0 35.3457 28.6533 63.999 63.998 63.999c35.3457 0 63.999 -28.6533 63.999 -63.999s-28.6533 -63.999 -63.999 -63.999c-35.3447 0 -63.998 28.6533 -63.998 63.999zM95.9971 447.995
c35.2637 0 63.999 -28.7031 63.999 -63.999c0 -35.2949 -28.7354 -63.999 -63.999 -63.999c-35.2949 0 -63.999 28.7041 -63.999 63.999c0 35.2959 28.7041 63.999 63.999 63.999zM511.862 146.048c0.607422 -4.5752 -0.799805 -9.18359 -3.87207 -12.6074
c-3.04004 -3.45605 -7.3916 -5.43945 -12 -5.43945h-17.248l-13.3115 -130.91c-1.66406 -16.6719 -15.3594 -29.0869 -31.8711 -29.0869h-35.04c-16.5117 0 -30.207 12.3838 -31.8389 28.7988l-10.624 104.095c5.95215 2.75195 11.5195 6.27148 15.8721 11.2637
c9.21582 10.3994 13.5039 24.2236 11.7119 37.9512l-14.4961 112.766c-0.959961 8.86426 -4.19238 16.7676 -8.32031 24.0635c1.88867 0.352539 3.68066 1.05664 5.66406 1.05664h17.5361c4.22363 0 8.28809 -1.69629 11.2959 -4.67188l20.6709 -20.6719l20.6719 20.6719
c3.00781 2.97559 7.07227 4.67188 11.3281 4.67188h17.5352c16.5117 0 30.1758 -12.3838 31.8076 -28.832zM139.965 112.321c4.47949 -5.05664 10.0791 -8.6084 16.0625 -11.3926l-10.624 -103.838c-1.66406 -16.6719 -15.3594 -29.0869 -31.8711 -29.0869h-35.04
c-16.5117 0 -30.2393 12.415 -31.8389 28.7988l-13.376 131.198h-17.2793c-4.57617 0 -8.95996 1.9834 -12 5.43945c-3.04004 3.42383 -4.44824 8.03223 -3.87207 12.5762l14.5596 113.598c1.60059 16 15.2959 28.3838 31.8076 28.3838h17.5371
c4.22363 0 8.28711 -1.69629 11.2949 -4.67188l20.6719 -20.6719l20.6719 20.6719c3.00781 2.97559 7.07227 4.67188 11.3281 4.67188h17.5352c1.8877 0 3.58398 -0.704102 5.37598 -1.02441c-4 -7.10352 -7.13574 -14.7832 -7.96777 -23.2949l-14.5596 -113.631
c-1.72852 -13.6631 2.49609 -27.4551 11.584 -37.7266z" />
    <glyph glyph-name="023-group-profile-users" unicode="&#xf115;" 
d="M102.4 294.398c-18.8457 0 -34.9336 6.66797 -48.2666 19.999c-13.332 13.333 -20 29.4199 -20 48.2676c0 18.8457 6.66797 34.9336 20 48.2686c13.333 13.333 29.4209 20.001 48.2666 20.001c18.8467 0 34.9336 -6.66797 48.2646 -20.001
c13.335 -13.335 20.0029 -29.4268 20.0029 -48.2686c0 -18.8438 -6.66797 -34.9346 -20.0029 -48.2676c-13.3311 -13.334 -29.417 -19.999 -48.2646 -19.999zM183.599 187.858c-19.998 20.0039 -30 44.1348 -30 72.4053c0 28.2695 10.002 52.4014 30 72.4004
c19.999 19.999 44.1309 30.001 72.4014 30.001c28.2725 0 52.4014 -10 72.4014 -30.001c19.9961 -20.002 29.9971 -44.1338 29.9971 -72.4004c0 -28.2656 -10.001 -52.3984 -29.9971 -72.4053c-20 -19.9941 -44.1289 -29.9951 -72.4014 -29.9951
c-28.2705 0 -52.4004 10.001 -72.4014 29.9951zM409.607 294.398c-18.8525 0 -34.9395 6.66797 -48.2725 19.999c-13.3281 13.333 -19.9961 29.4199 -19.9961 48.2676c0 18.8457 6.66699 34.9336 19.9961 48.2686c13.333 13.333 29.4199 20.001 48.2725 20.001
c18.8389 0 34.9307 -6.66797 48.2617 -20.001c13.332 -13.335 19.9961 -29.4268 19.9961 -48.2686c0 -18.8438 -6.66406 -34.9346 -19.9961 -48.2676c-13.332 -13.334 -29.4229 -19.999 -48.2617 -19.999zM478.93 294.396
c22.0557 0.00292969 33.0732 -31.375 33.0703 -94.1357c0 -13.8643 -4.98047 -24.4033 -14.9336 -31.5977c-9.9541 -7.19824 -22.2217 -10.8066 -36.7969 -10.8066h-35.7324c-18.3174 21.873 -41.8691 33.248 -70.6748 34.1406
c14.4062 20.8008 21.6074 43.5547 21.6074 68.2666c0 5.15527 -0.447266 11.0234 -1.33008 17.5986c11.7383 -4.09082 23.5518 -6.13379 35.4678 -6.13379c10.4844 0 21.0674 1.91211 31.7305 5.73047c10.6631 3.82324 19.335 7.60156 25.9961 11.3369
c6.66797 3.7334 10.5352 5.60059 11.5957 5.60059zM439.078 78.7979c1.86035 -10.4004 3.10352 -20.0869 3.73438 -29.0684c0.613281 -8.98145 0.926758 -18.1816 0.926758 -27.6035c0 -21.3291 -6.48828 -38.1768 -19.4658 -50.5283
c-12.9854 -12.3506 -30.2285 -18.5332 -51.7373 -18.5332h-233.07c-21.5068 0 -38.7529 6.18262 -51.7344 18.5332c-12.9775 12.3516 -19.4639 29.1992 -19.4639 50.5283c0 9.42188 0.30957 18.625 0.932617 27.6035c0.62207 8.98145 1.86523 18.667 3.7334 29.0684
c1.87012 10.4004 4.22266 20.0469 7.06738 28.9336c2.84473 8.89258 6.66699 17.5537 11.4648 25.999c4.80371 8.43848 10.3096 15.6494 16.5361 21.6016c6.22168 5.95801 13.8213 10.707 22.7998 14.2676c8.97852 3.55469 18.8896 5.33203 29.7324 5.33203
c1.78027 0 5.60059 -1.91211 11.4688 -5.73535c5.86621 -3.81934 12.3525 -8.09277 19.4658 -12.7979c7.1123 -4.70508 16.6201 -8.97461 28.5342 -12.7979c11.9121 -3.82324 23.9141 -5.73535 36.001 -5.73535c12.083 0 24.0811 1.91211 36.001 5.73535
c11.9189 3.82324 21.4219 8.09277 28.5342 12.7979c7.11426 4.70508 13.5977 8.97852 19.4658 12.7979c5.86816 3.82324 9.6875 5.73535 11.4678 5.73535c10.8428 0 20.7578 -1.77734 29.7334 -5.33203c8.97461 -3.56055 16.5752 -8.30957 22.8027 -14.2676
c6.22266 -5.95801 11.7363 -13.1631 16.5381 -21.6016c4.79297 -8.44531 8.61621 -17.1064 11.4609 -25.999c2.84473 -8.88672 5.20312 -18.5332 7.07031 -28.9336zM158.132 191.997c-28.8008 -0.891602 -52.3535 -12.2676 -70.667 -34.1338h-35.7354
c-14.5732 0 -26.8408 3.60156 -36.7969 10.7998c-9.9541 7.19434 -14.9326 17.7334 -14.9326 31.5977c0 62.7559 11.0225 94.1348 33.0684 94.1348c1.06543 0 4.93457 -1.86621 11.6016 -5.59961c6.66504 -3.73535 15.334 -7.51367 25.998 -11.3369
c10.668 -3.81934 21.2432 -5.73047 31.7324 -5.73047c11.9111 0 23.7334 2.04492 35.4678 6.13379c-0.886719 -6.57812 -1.33203 -12.4434 -1.33203 -17.5986c-0.00292969 -24.7119 7.19531 -47.4668 21.5957 -68.2666z" />
    <glyph glyph-name="020-calendar-with-a-clock-time-tools" unicode="&#xf112;" 
d="M64 367.998v64.002c0 8.84473 7.15527 16 16.0029 16c8.84277 0 15.998 -7.15527 15.998 -16v-64.002c0 -8.8418 -7.15527 -15.998 -15.998 -15.998c-8.84766 -0.000976562 -16.0029 7.15625 -16.0029 15.998zM336.003 351.999
c-8.84473 0 -16.0049 7.15723 -16.0049 15.999v64.002c0 8.84473 7.16016 16 16.0049 16c8.84082 0 16 -7.15527 16 -16v-64.0029c0 -8.84277 -7.15918 -15.998 -16 -15.998zM511.999 64.0039c0 -70.6943 -57.3105 -128.004 -128 -128.004
c-70.6836 0 -127.998 57.3096 -127.998 128.004c0 70.6846 57.3135 127.997 127.998 127.997c70.6895 0 128 -57.3115 128 -127.997zM480.003 64.0039c0 52.9307 -43.0625 95.998 -96.0029 95.998c-52.9355 0 -95.998 -43.0664 -95.998 -95.998
c0 -52.9404 43.0625 -96.0029 95.998 -96.0029c52.9404 0 96.0029 43.0625 96.0029 96.0029zM128.002 256v-63.999h-64.002v63.999h64.002zM64 96v64.002h64.002v-64.002h-64.002zM160 192.001v63.999h64.002v-63.999h-64.002zM160 96v64.002h64.002v-64.002h-64.002z
M32.002 67.1855c0 -1.68457 1.22168 -3.18164 2.6709 -3.18262h189.329v-32.0059h-189.329c-19.1543 0 -34.6719 15.8135 -34.6719 35.1875v281.626c0 19.4375 15.5176 35.1904 34.6719 35.1904h13.3291v-16.0039c0 -17.623 14.3447 -31.999 32.002 -31.999
c17.6523 0 31.9961 14.376 31.9961 31.999v16.0039h192.004v-16.0039c0 -17.623 14.3457 -31.999 32 -31.999c17.6494 0 31.9961 14.376 31.9961 31.999v16.0039h13.3457c19.1523 0 34.6562 -15.7529 34.6562 -35.1904v-124.811h-32.002v64.001h-351.998v-220.815z
M319.998 192.001h-63.9961v63.999h63.9961v-63.999zM432.001 64.0039c8.84473 0 16 -7.16016 16 -16.0049c0 -8.84082 -7.15527 -16.001 -16 -16.001h-64.002c-8.84473 0 -15.9961 7.16016 -15.9961 16.001v64.0059c0 8.83984 7.15137 15.9951 15.9961 15.9951
s16 -7.15527 16 -15.9951v-48.001h48.002z" />
    <glyph glyph-name="030-dryer" unicode="&#xf11c;" 
d="M318.441 358c35.0137 0 63.5 -28.4863 63.5 -63.5s-28.4863 -63.5 -63.5 -63.5c-35.0146 0 -63.5 28.4863 -63.5 63.5s28.4854 63.5 63.5 63.5zM0 448h60.0479v-149.411l-60.0479 17.2266v132.185zM318.442 448c84.6406 0 153.5 -68.8604 153.5 -153.5
c0 -60.7666 -36.2285 -115.871 -91.1797 -140.313v-34.9346h-124.643v34.9346c-22.6348 10.0615 -42.5566 25.499 -58.0684 45.0859c-15.8682 20.0361 -26.4072 43.5605 -30.791 68.5605l-77.2129 22.1504v158.017h228.395zM318.441 201c51.5557 0 93.5 41.9443 93.5 93.5
s-41.9443 93.5 -93.5 93.5c-51.5566 0 -93.5 -41.9443 -93.5 -93.5s41.9434 -93.5 93.5 -93.5zM479.495 141.949h32.5049v-30h-32.5039c-21.3311 0 -38.6855 -17.3545 -38.6855 -38.6855v-68.5791c0 -37.873 -30.8115 -68.6846 -68.6846 -68.6846
c-35.0498 0 -64.0312 26.3945 -68.1611 60.3467c-27.4033 6.5459 -47.8447 31.2266 -47.8447 60.6064v32.2969h124.642v-32.2969c0 -28.8936 -19.7646 -53.25 -46.4824 -60.2764c3.69727 -17.501 19.2598 -30.6777 37.8457 -30.6777
c21.3311 0 38.6846 17.3535 38.6846 38.6846v68.5791c0 37.873 30.8125 68.6855 68.6855 68.6855v0.000976562z" />
    <glyph glyph-name="012-rating" unicode="&#xf10b;" 
d="M0 337h512v-200h-211l-45 -90l-45 90h-211v200zM146.902 191.447l-5.90234 34.4102l25 24.3682l-34.5488 5.02051l-15.4512 31.3066l-15.4512 -31.3057l-34.5488 -5.02148l25 -24.3682l-5.90234 -34.4102l30.9023 16.2461zM281 225.857l25 24.3682l-34.5488 5.02051
l-15.4512 31.3066l-15.4512 -31.3057l-34.5488 -5.02148l25 -24.3682l-5.90234 -34.4102l30.9023 16.2461l30.9023 -16.2461zM426.902 191.447l-5.90234 34.4102l25 24.3682l-34.5488 5.02051l-15.4512 31.3066l-15.4512 -31.3057l-34.5488 -5.02148l25 -24.3682
l-5.90234 -34.4102l30.9023 16.2461z" />
    <glyph glyph-name="025-delivery-truck-with-circular-clock" unicode="&#xf117;" 
d="M505.416 79.7539c3.62207 0 6.58301 -2.96387 6.58398 -6.58398v-20.0127c0 -3.62012 -2.96191 -6.58301 -6.58301 -6.58301h-53.3213c-3.81836 26.1338 -26.2666 46.3447 -53.4541 46.3447s-49.7012 -20.2109 -53.5186 -46.3447h-107.302
c-1.90918 13.166 -8.55762 24.8184 -18.2344 33.1777h101.772v188.271c0 7.24121 5.8584 13.166 13.165 13.166h62.1426c17.5107 0 33.8359 -8.68945 43.6445 -23.1719l40.0898 -59.3779c5.85938 -8.68848 9.01855 -18.958 9.01855 -29.4258v-89.46h15.9961z
M439.851 186.791c5.33203 0 8.42578 5.99023 5.39746 10.335l-32.0576 45.5537c-1.25098 1.71191 -3.22559 2.76562 -5.39844 2.76562h-49.9648c-3.62012 0 -6.58203 -2.96289 -6.58203 -6.58398v-45.4873c0 -3.68555 2.96191 -6.58301 6.58203 -6.58301h82.0234z
M398.642 79.7539c22.5791 0 40.9453 -18.3672 40.9453 -41.0107c0 -22.5801 -18.3662 -40.9463 -40.9453 -40.9463c-22.6455 0 -40.9453 18.3662 -40.9453 40.9463c0 22.6445 18.2998 41.0107 40.9453 41.0107zM398.642 18.2676c11.3223 0 20.4736 9.21582 20.4736 20.4727
c0 11.3232 -9.15234 20.4746 -20.4736 20.4746c-11.3232 0 -20.4736 -9.15137 -20.4736 -20.4746c0 -11.2568 9.15039 -20.4727 20.4736 -20.4727zM57.252 79.7539v-0.00195312h91.7656c-9.61133 -8.35938 -16.2598 -20.0117 -18.1689 -33.1777h-73.5967
c-3.62109 0 -6.58301 2.96289 -6.58301 6.58301v20.0137c0 3.61914 2.96191 6.58301 6.58301 6.58301zM184.302 79.7539c22.6455 0 40.9463 -18.3672 40.9453 -41.0107c0 -22.5801 -18.3008 -40.9463 -40.9453 -40.9463c-22.5791 0 -40.9463 18.3662 -40.9463 40.9463
c0 22.6445 18.3672 41.0107 40.9463 41.0107zM184.302 18.2676c11.3223 0 20.4727 9.21582 20.4727 20.4727c0 11.3232 -9.15039 20.4746 -20.4727 20.4746c-11.3232 0 -20.4727 -9.15137 -20.4727 -20.4746c0 -11.2568 9.14941 -20.4727 20.4727 -20.4727zM282.782 322.004
c10.9268 0 19.748 -8.82129 19.749 -19.749v-196.237c0 -3.62012 -2.96191 -6.58301 -6.58301 -6.58301h-222.502c-3.62109 0 -6.58398 2.96289 -6.58398 6.58301v72.7422c10.3359 -3.09473 21.3291 -4.80566 32.6523 -4.80566c62.1426 0 112.699 50.5566 112.699 112.699
c0 12.3105 -1.97559 24.2256 -5.72754 35.3506h76.2959zM99.5293 386.204c54.9688 0 99.5303 -44.5605 99.5303 -99.5293s-44.5615 -99.5293 -99.5303 -99.5293s-99.5293 44.5605 -99.5293 99.5293s44.5605 99.5293 99.5293 99.5293zM99.5293 209.795
c42.46 0 76.8799 34.4199 76.8799 76.8799c0 42.459 -34.4199 76.8809 -76.8799 76.8809c-42.459 0 -76.8799 -34.4209 -76.8799 -76.8809s34.4209 -76.8799 76.8799 -76.8799zM128.892 270.438c-0.848633 0 -1.7168 0.109375 -2.57812 0.34082l-32.0781 8.64551
c-4.30664 1.16406 -7.30273 5.07129 -7.30273 9.53418v49.3721c0 5.45117 4.42285 9.87402 9.875 9.87402c5.45117 0 9.87402 -4.42285 9.87402 -9.87402v-41.8057l24.7754 -6.67871c5.26562 -1.4209 8.38184 -6.84082 6.96191 -12.1045
c-1.18848 -4.4043 -5.1748 -7.30371 -9.52734 -7.30371z" />
    <glyph glyph-name="021-multiple-users-silhouette" unicode="&#xf113;" 
d="M308.97 333.485c0.625977 40.9258 33.9482 73.9404 75.0273 73.9531c41.4746 0 75.0908 -33.6152 75.0908 -75.0908c0 -41.4688 -33.6162 -75.084 -75.0908 -75.084c-11.3613 0 -22.0762 2.59375 -31.7314 7.10547c-3.02148 29.1553 -19.6221 54.2734 -43.2959 69.1162z
M259.776 179.738c-41.4688 0 -75.1035 33.6162 -75.1035 75.084c0 41.4688 33.6348 75.0908 75.1035 75.0908s75.0908 -33.6152 75.0908 -75.084s-33.6162 -75.0908 -75.0908 -75.0908zM291.629 174.62c53.0146 0 96.1445 -43.1357 96.125 -96.1504v-77.9346h-0.537109
l-5.01562 -2.53711c-2.52344 -1.28418 -43.4814 -21.4307 -114.144 -21.4307c-36.1787 0 -80.1328 5.27148 -130.726 21.0801l-5.36719 1.67969l-0.198242 1.2207v77.9219c0 53.0146 43.1299 96.1504 96.1445 96.1504h63.7178zM415.862 252.139
c53.0078 0 96.1377 -43.1299 96.1377 -96.1377v-77.9473h-0.537109l-5.01562 -2.54297c-2.37012 -1.18848 -38.3438 -18.8809 -100.771 -21.1689v24.0127c0 51.6152 -34.4785 95.3135 -81.6016 109.326c17.0791 16.3828 27.8779 39.1621 28.5615 64.458h63.2256z
M128.016 257.251c-41.4814 0 -75.0908 33.6221 -75.0908 75.0781c0 41.4746 33.6094 75.0908 75.0908 75.0908c41.4561 0 75.0781 -33.6162 75.0781 -75.0908c0 -1.41895 -0.133789 -2.81152 -0.210938 -4.21777c-18.3828 -14.2871 -31.251 -35.2637 -34.9316 -59.2695
c-11.5781 -7.30371 -25.2451 -11.5908 -39.9355 -11.5908zM195.452 187.681c-47.1367 -14.0254 -81.6016 -57.7109 -81.6143 -109.326v-23.5332c-31.4629 1.83984 -67.6855 7.68066 -108.272 20.3506l-5.36719 1.69336l-0.198242 1.20117v77.9346
c0 53.0078 43.1299 96.1377 96.1445 96.1377h63.7109c2.38965 0 4.70898 -0.18457 7.05371 -0.357422c0.786133 -25.1436 11.5469 -47.8008 28.543 -64.1006z" />
    <glyph glyph-name="015-help" unicode="&#xf10e;" 
d="M512 101.5c0 -29.7891 -7.93359 -58.7578 -23.0078 -84.2109l22.2852 -80.5664l-80.5664 22.2852c-25.4531 -15.0742 -54.4219 -23.0078 -84.2109 -23.0078c-63.5352 0 -120.238 36.4492 -147.82 91.0391c121.82 1.69531 220.586 100.461 222.281 222.281
c54.5898 -27.582 91.0391 -84.2852 91.0391 -147.82zM512 101.5zM391 252.5c0 -107.801 -87.6992 -195.5 -195.5 -195.5c-35.1328 0 -69.3398 9.35156 -99.3711 27.1094l-95.4102 -26.3867l26.3906 95.4062c-17.7578 30.0312 -27.1094 64.2383 -27.1094 99.3711
c0 107.801 87.6992 195.5 195.5 195.5s195.5 -87.6992 195.5 -195.5zM165.5 298c0 16.543 13.457 30 30 30s30 -13.457 30 -30c0 -8.51953 -3.46875 -16.3828 -9.76562 -22.1445l-35.2344 -32.25v-36.6055h30v23.3945l25.4883 23.3281
c12.4023 11.3438 19.5117 27.4844 19.5117 44.2773c0 33.0859 -26.9141 60 -60 60s-60 -26.9141 -60 -60h30zM180.5 177v-30h30v30h-30zM180.5 177z" />
    <glyph glyph-name="009-order" unicode="&#xf108;" 
d="M0 29.3086c0 14.1367 11.4609 25.5977 25.6016 25.5977v-8.53125c0 -4.71484 3.82031 -8.53516 8.53125 -8.53516h47.2734c-4.5625 -4.89453 -8.02734 -10.7148 -10.1523 -17.0664c-1.99219 -5.46875 -3.00391 -11.2461 -2.98828 -17.0664h-42.6641
c-14.1211 0.0429688 -25.5586 11.4805 -25.6016 25.6016zM0 29.3086zM486.398 54.9062c14.1211 -0.0390625 25.5586 -11.4766 25.6016 -25.5977c0 -14.1406 -11.4609 -25.6016 -25.6016 -25.6016h-42.6641c0.015625 5.82031 -0.996094 11.5977 -2.98828 17.0664
c-2.125 6.35156 -5.58984 12.1719 -10.1523 17.0664h38.7383c4.71484 0 8.53516 3.82031 8.53516 8.53516v8.53125h8.53125zM486.398 54.9062zM273.758 301.258c115.73 -11.4492 203.965 -108.723 204.109 -225.016v-21.3359h-452.266v21.3359
c0.132812 113.047 83.6562 208.66 195.66 223.98c-2.62109 13.6289 -9.08984 26.2227 -18.6445 36.2852h-14.8828c-4.71484 0 -8.53516 3.82031 -8.53516 8.53516c0 4.71094 3.82031 8.53125 8.53516 8.53125h119.465c4.71484 0 8.53516 -3.82031 8.53516 -8.53125
c0 -4.71484 -3.82031 -8.53516 -8.53516 -8.53516h-14.8828c-9.33594 -9.80078 -15.7617 -22.0078 -18.5586 -35.25zM270.566 336.508h-46.2148c7.26562 -10.2773 12.0195 -22.1172 13.875 -34.5703h0.109375c4.4375 0.257812 8.875 0.429688 13.3984 0.429688
c1.62109 0 3.24219 0 4.86328 -0.0859375h0.121094c1.89844 12.3281 6.63672 24.0469 13.8477 34.2266zM143.445 75.4727c1.60938 2.21875 2.05469 5.07812 1.19531 7.67969c-4.89453 21.0352 -4.80859 42.9219 0.253906 63.9141
c0.507812 2.51172 -0.152344 5.11719 -1.78906 7.08594c-1.58594 2.00781 -4.01172 3.17578 -6.57031 3.15625h-51.2031c-2.26172 -0.015625 -4.42969 -0.902344 -6.05859 -2.47656c-1.96094 -2.04688 -19.5391 -21.1602 -19.5391 -74.3242
c0 -4.71094 3.82031 -8.53516 8.53125 -8.53516h68.2695c2.71875 0.03125 5.27344 1.32422 6.91016 3.5zM169.727 238.801c1.69141 3.37891 0.957031 7.46484 -1.80078 10.0469s-6.88672 3.04297 -10.1445 1.13281c-1.87891 -1.10938 -45.0547 -27.3086 -62.9766 -63.2344
c-1.33203 -2.64062 -1.19922 -5.78125 0.347656 -8.30078c1.54688 -2.52344 4.28906 -4.0625 7.24609 -4.07031h42.668c4.71484 0 8.53516 3.82031 8.53516 8.53125c1.46094 19.5469 6.95312 38.5742 16.125 55.8945zM169.727 238.801zM117.59 191.441
c7.43359 9.81641 15.9648 18.7461 25.4297 26.625c-2.76172 -8.67578 -4.70312 -17.5898 -5.80469 -26.625h-19.625zM117.59 191.441zM89.5156 140.242h36.8633c-2.78125 -16.9453 -2.92578 -34.2148 -0.425781 -51.1992h-48.9844
c1.28125 30.293 8.96094 45.6523 12.5469 51.1992zM89.5156 140.242zM119.465 37.8398c16.2227 0.00390625 30.207 -11.4102 33.4531 -27.3047c0.445312 -2.25 0.675781 -4.53516 0.683594 -6.82812c0 -18.8516 -15.2852 -34.1328 -34.1367 -34.1328
c-18.8477 0 -34.1328 15.2812 -34.1328 34.1328c0.0078125 2.29297 0.238281 4.57812 0.683594 6.82812c3.24609 15.8945 17.2305 27.3086 33.4492 27.3047zM119.465 37.8398zM81.4062 -30.4258c9.65625 -10.8789 23.5156 -17.0938 38.0586 -17.0664h-68.2656
c-4.71094 0 -8.53125 3.82031 -8.53125 8.53516c0 4.71094 3.82031 8.53125 8.53125 8.53125h30.207zM81.4062 -30.4258zM17.0664 -30.5547c4.71484 0 8.53516 -3.82031 8.53516 -8.53125c0 -4.71484 -3.82031 -8.53516 -8.53516 -8.53516h-8.53125
c-4.71484 0 -8.53516 3.82031 -8.53516 8.53516c0 4.71094 3.82031 8.53125 8.53516 8.53125h8.53125zM17.0664 -30.5547zM167.68 20.7734c-2.125 6.35156 -5.58984 12.1719 -10.1562 17.0664h196.953c-4.56641 -4.89453 -8.03125 -10.7148 -10.1562 -17.0664
c-1.99219 -5.46875 -3.00391 -11.2461 -2.98828 -17.0664h-170.664c0.015625 5.82031 -0.996094 11.5977 -2.98828 17.0664zM167.68 20.7734zM392.535 37.8398c16.2188 0.00390625 30.2031 -11.4102 33.4492 -27.3047c0.445312 -2.25 0.675781 -4.53516 0.683594 -6.82812
c0 -18.8516 -15.2852 -34.1328 -34.1328 -34.1328c-18.8516 0 -34.1367 15.2812 -34.1367 34.1328c0.0078125 2.29297 0.238281 4.57812 0.683594 6.82812c3.24609 15.8945 17.2305 27.3086 33.4531 27.3047zM392.535 37.8398zM354.477 -30.4258
c9.65234 -10.8789 23.5117 -17.0938 38.0586 -17.0664h-68.2695c-4.71094 0 -8.53125 3.82031 -8.53125 8.53516c0 4.71094 3.82031 8.53125 8.53125 8.53125h30.2109zM354.477 -30.4258zM281.602 -30.5547h8.53125c4.71484 0 8.53516 -3.82031 8.53516 -8.53125
c0 -4.71484 -3.82031 -8.53516 -8.53516 -8.53516h-8.53125c-4.71484 0 -8.53516 3.82031 -8.53516 8.53516c0 4.71094 3.82031 8.53125 8.53516 8.53125zM281.602 -30.5547zM165.035 387.539c-19.457 -3.41406 -32.7695 -0.941406 -39.6797 7.33594
c-2.59766 3.22656 -4.9375 6.65234 -7 10.2422c-1.36328 2.30078 -2.8125 4.69141 -4.43359 6.99609c-13.2305 19.457 -31.832 26.0273 -51.2891 31.5742c-1.62109 0.425781 -3.24219 0.9375 -4.86328 1.36328c6.85547 1.67188 13.8594 2.64062 20.9062 2.90234
c9.91406 0.402344 19.7656 -1.77344 28.5898 -6.31641c6.21875 -3.89844 11.7539 -8.80078 16.3828 -14.5039c2.47266 -2.73047 4.94922 -5.46094 7.59375 -8.02344c14.8477 -14.4219 34.1328 -14.8477 51.1992 -15.2734
c6.42188 -0.015625 12.8359 -0.441406 19.2031 -1.28125c5.40234 -0.78125 10.5625 -2.76172 15.1016 -5.80078c-2.81641 0 -5.71484 -0.171875 -8.61719 -0.425781c-8.89453 -1.10938 -17.707 -2.82031 -26.3672 -5.12109
c-5.54688 -1.36719 -11.0938 -2.64453 -16.7266 -3.66797zM165.035 387.539zM74.1562 353.32c9.55859 -4.85547 19.4531 -9.01953 29.6094 -12.4609c11.1133 -3.65234 22.6953 -5.69531 34.3906 -6.05859c-2.41406 -3.11328 -5.22656 -5.89453 -8.36328 -8.27734
c-12.6172 -8.28906 -28.6172 -9.48438 -42.3281 -3.15625c-8.48438 3.93359 -16.3359 9.10938 -23.293 15.3594c-6.44922 5.55469 -13.4219 10.4727 -20.8242 14.6758c-5.06641 2.71094 -10.3125 5.07812 -15.6992 7.08594l2.81641 0.511719
c11.2227 2.28906 22.8711 1.28125 33.5352 -2.90234c3.41406 -1.53516 6.82812 -3.15625 10.1562 -4.77734zM74.1562 353.32z" />
    <glyph glyph-name="037-linkedin" unicode="&#xf123;" 
d="M437 448c41.3516 0 75 -33.6484 75 -75v-362c0 -41.3516 -33.6484 -75 -75 -75h-362c-41.3516 0 -75 33.6484 -75 75v362c0 41.3516 33.6484 75 75 75h362zM181 42v210h-60v-210h60zM181 282v60h-60v-60h60zM391 42v130.312c0 43.1406 -34.3086 79.6445 -75 79.6875
c-19.0703 0 -29.2812 -6.42188 -45 -11.3086v11.3086h-60v-210h60v120c0 16.5391 13.4609 30 30 30s30 -13.4609 30 -30v-120h60zM391 42z" />
    <glyph glyph-name="031-hair-dryer" unicode="&#xf11d;" 
d="M372.81 356.436v-141.779l-153.389 -36.2598l30.4922 -130.315c4.28711 -18.3223 0.0400391 -37.2871 -11.6523 -52.0303c-11.6914 -14.7441 -29.1895 -23.2002 -48.0068 -23.2002c-28.1025 0 -52.5322 19.0312 -59.4082 46.2803l-36.5654 144.905
c-12.8906 3.33008 -25.29 8.66016 -36.6406 15.9102c-28.7197 18.3398 -48.2598 46.6699 -55.0293 79.7598c-1.73047 8.4502 -2.61035 17.1504 -2.61035 25.8398c0 8.69043 0.879883 17.3799 2.61035 25.8398c6.76953 33.0898 26.3096 61.4102 55.0293 79.7607
c28.9004 18.4492 64.6104 24.5098 97.9805 16.6191zM488.11 385.256c0.979492 -1.32031 23.8896 -33.1299 23.8896 -99.71s-22.9102 -98.3896 -23.8896 -99.71l-7.12988 -9.66016l-78.1709 34.4307v149.88l78.1709 34.4297z" />
    <glyph glyph-name="035-phone-call" unicode="&#xf121;" 
d="M124.622 124.506l49.7021 -49.7021l198.872 198.872l-49.7021 49.7021l124.623 124.622s59.5537 -54.7852 63.5586 -98.2383c5.35938 -58.1641 -56.207 -163.91 -152.867 -260.571c-96.6602 -96.6592 -202.406 -158.226 -260.568 -152.867
c-43.4541 4.00684 -98.2402 63.5596 -98.2402 63.5596z" />
    <glyph glyph-name="013-rating-1" unicode="&#xf10c;" 
d="M82.877 136.878c-9.17969 6.14355 -11.6416 18.5654 -5.49902 27.7451c26.0986 39 63.7021 67.6816 106.698 82.7861c-25.0742 20.7441 -41.0762 52.083 -41.0762 87.0908c0 62.3086 50.6914 113 113 113s113 -50.6914 113 -113
c0 -35.2607 -16.2383 -66.7979 -41.626 -87.5371c42.334 -15.1602 79.3799 -43.499 105.219 -81.9053c6.16602 -9.16406 3.73535 -21.5918 -5.42969 -27.7578c-9.16406 -6.16602 -21.5908 -3.73438 -27.7578 5.43066c-32.3398 48.0703 -86.2744 76.7695 -144.273 76.7695
c-58.1709 0 -112.193 -28.8311 -144.511 -77.123c-3.85742 -5.7627 -10.1904 -8.87891 -16.6396 -8.87891c-3.82324 0 -7.6875 1.09277 -11.1045 3.37988zM256 407.5c-40.252 0 -73 -32.748 -73 -73s32.748 -73 73 -73s73 32.748 73 73s-32.748 73 -73 73zM335.758 93.3701
l-29.8154 -21.5088c-4.43652 -3.2002 -6.29297 -8.87305 -4.59863 -14.0518l12.0068 -34.8018c0.507812 -1.5498 0.702148 -3.06348 0.637695 -4.50781c-0.424805 -9.34668 -12.1406 -15.7412 -20.7324 -9.54297l-29.8145 21.5146
c-2.21875 1.60059 -4.8291 2.40039 -7.44043 2.40039s-5.22168 -0.799805 -7.44043 -2.40039l-29.8145 -21.5146c-8.5918 -6.19824 -20.3633 0.196289 -20.7354 9.54297c-0.0566406 1.44434 0.143555 2.95898 0.650391 4.50781l11.9961 34.8018
c1.69434 5.17871 -0.162109 10.8516 -4.59863 14.0518l-29.8154 21.5088c-9.91992 7.15625 -4.82227 24.1299 7.43945 24.1299h36.8545c5.48438 0 10.3438 2.11133 12.0381 7.28906l11.3877 35.0273c1.89551 5.78906 6.96582 8.68359 12.0381 8.68359
s10.1426 -2.89453 12.0381 -8.68359l11.3877 -35.0273c1.69531 -5.17773 6.55469 -7.28906 12.0381 -7.28906h36.8545c12.2607 0 17.3584 -16.9736 7.43848 -24.1299zM506.758 23.3701l-29.8154 -21.5088c-4.43652 -3.2002 -6.29297 -8.87305 -4.59863 -14.0518
l12.0068 -34.8018c0.507812 -1.5498 0.702148 -3.06348 0.637695 -4.50781c-0.424805 -9.34668 -12.1406 -15.7412 -20.7324 -9.54297l-29.8145 21.5146c-2.21875 1.60059 -4.8291 2.40039 -7.44043 2.40039s-5.22168 -0.799805 -7.44043 -2.40039l-29.8145 -21.5146
c-8.5918 -6.19824 -20.3633 0.196289 -20.7354 9.54297c-0.0566406 1.44434 0.143555 2.95898 0.650391 4.50781l11.9961 34.8018c1.69434 5.17871 -0.162109 10.8516 -4.59863 14.0518l-29.8154 21.5088c-9.91992 7.15625 -4.82227 24.1299 7.43945 24.1299h36.8545
c5.48438 0 10.3438 2.11133 12.0381 7.28906l11.3877 35.0273c1.89551 5.78906 6.96582 8.68359 12.0381 8.68359s10.1426 -2.89453 12.0381 -8.68359l11.3877 -35.0273c1.69531 -5.17773 6.55469 -7.28906 12.0381 -7.28906h36.8545
c12.2607 0 17.3584 -16.9736 7.43848 -24.1299zM164.758 23.3701l-29.8154 -21.5088c-4.43652 -3.2002 -6.29297 -8.87305 -4.59863 -14.0518l12.0068 -34.8018c0.507812 -1.5498 0.702148 -3.06348 0.637695 -4.50781
c-0.424805 -9.34668 -12.1406 -15.7412 -20.7324 -9.54297l-29.8154 21.5146c-2.21875 1.60059 -4.8291 2.40039 -7.44043 2.40039s-5.22168 -0.799805 -7.44043 -2.40039l-29.8145 -21.5146c-8.5918 -6.19824 -20.3633 0.196289 -20.7354 9.54297
c-0.0566406 1.44434 0.143555 2.95898 0.650391 4.50781l11.9961 34.8018c1.69434 5.17871 -0.162109 10.8516 -4.59863 14.0518l-29.8154 21.5088c-9.91992 7.15625 -4.82227 24.1299 7.43945 24.1299h36.8545c5.4834 0 10.3438 2.11133 12.0381 7.28906l11.3877 35.0273
c1.89551 5.78906 6.96582 8.68359 12.0381 8.68359s10.1426 -2.89453 12.0381 -8.68359l11.3877 -35.0273c1.69531 -5.17773 6.55469 -7.28906 12.0381 -7.28906h36.8545c12.2617 0 17.3594 -16.9736 7.43945 -24.1299z" />
    <glyph glyph-name="016-whatsapp" unicode="&#xf10f;" 
d="M256.064 448c141.151 0 255.936 -114.848 255.936 -256s-114.784 -256 -255.936 -256c-52.0645 0 -100.353 15.4883 -140.832 42.3037l-98.4004 -31.4561l31.9043 95.1045c-30.6885 42.1436 -48.7363 94.0479 -48.7363 150.048c0 141.184 114.784 256 255.936 256
h0.128906zM405.024 86.4961c6.17578 17.4717 6.17578 32.3516 4.38379 35.5195c-1.82422 3.16797 -6.78418 4.95996 -14.3047 8.73633c-7.51953 3.74414 -44.0957 21.8242 -51.0078 24.2236c-6.78418 2.56055 -13.248 1.66406 -18.3682 -5.56738
c-7.19922 -10.0801 -14.2715 -20.3203 -20 -26.4961c-4.51172 -4.7998 -11.8711 -5.4082 -18.0479 -2.84766c-8.28809 3.45508 -31.4561 11.584 -60.0312 37.0234c-22.1445 19.7119 -37.1846 44.2559 -41.5361 51.6162c-4.35254 7.51953 -0.448242 11.8721 3.00781 15.9355
c3.77637 4.67188 7.36035 8 11.1357 12.3525c3.77637 4.35156 5.8877 6.62402 8.28809 11.7441c2.55957 4.95996 0.736328 10.0801 -1.08789 13.8555c-1.79199 3.77637 -16.832 40.5117 -23.0078 55.3926c-4.95996 11.8721 -8.73633 12.3193 -16.2559 12.6396
c-2.56055 0.12793 -5.4082 0.288086 -8.57617 0.288086c-9.79199 0 -20 -2.87988 -26.1758 -9.18457c-7.52051 -7.67969 -26.1768 -25.5674 -26.1768 -62.3037c0 -36.7354 26.7842 -72.2559 30.4004 -77.2158c3.77637 -4.95996 52.2236 -81.4082 127.456 -112.576
c58.8154 -24.3838 76.2881 -22.1123 89.6641 -19.2637c19.5518 4.22363 44.0635 18.6875 50.2402 36.1279z" />
    <glyph glyph-name="036-balcony" unicode="&#xf122;" 
d="M31 27v90h-31v30h512v-30h-30v-90h-61v90h-30v-90h-30v90h-30v-90h-30v90h-30v-90h-30v90h-30v-90h-30v90h-30v-90h-30v90h-30v-90h-60zM31 27zM421 283v-14.1641c-31.2305 2.83594 -61.0352 14.2812 -86.1602 33.8086
c-40.5781 31.5234 -63.8398 79.043 -63.8398 130.355v15c83.9688 -7.61328 150 -79.082 150 -165zM421 283zM241 433c0 -57.1289 -28.9297 -109.41 -77.3711 -139.836c-22.3398 -14.0391 -47.0547 -21.8828 -72.6289 -24.1562v13.9922c0 85.918 66.0312 157.387 150 165v-15
zM241 433zM421 177h-60v76.3008c19.1992 -8.10156 39.3008 -13.1992 60 -14.6992v-61.6016zM421 177zM91 177v61.9023c20.3984 1.5 40.8008 6 60 14.0977v-76h-60zM91 177zM31 -3h451v-61h-451v61zM31 -3z" />
    <glyph glyph-name="002-chef-hat" unicode="&#xf101;" 
d="M146.275 -64l-3.48828 53.876h226.179l-3.15234 -53.876h-219.538zM448.434 241.501c0 -44.4746 -29 -83.6602 -70.4336 -97.2539l-7.27246 -124.273h-35.499v131.914h-30.0977v-131.914h-33.0781v131.914h-30.0977v-131.914h-35.085v131.914h-30.0977v-131.914h-35.9336
l-8.07227 124.694c-18.0029 6.17773 -34.1455 17.3818 -46.2695 32.2764c-14.7871 18.167 -22.9307 41.0938 -22.9307 64.5566c0 52.2969 39.4375 95.5586 90.1328 101.61c-0.0214844 0.851562 -0.0322266 1.70508 -0.0322266 2.55566
c0 56.4268 45.9062 102.333 102.333 102.333s102.333 -45.9062 102.333 -102.333c0 -0.850586 -0.0107422 -1.7041 -0.0322266 -2.55566c50.6953 -6.05176 90.1328 -49.3135 90.1328 -101.61z" />
    <glyph glyph-name="005-restaurant" unicode="&#xf104;" 
d="M498.682 12.6738c17.5547 -17.5527 17.5547 -46.1133 0 -63.667c-17.8398 -17.8398 -46.8242 -16.8398 -63.665 0l-169.284 189.293l-24.1523 -24.1514l-183.11 183.109c-17.0684 17.0693 -27.2314 40.2305 -29.3916 66.9824
c-1.89551 23.4688 2.32617 49.1445 12.2051 74.249l3.74316 9.51074h18.3311l234.56 -234.56zM156.728 156.558l63.666 -63.6641l-143.411 -143.411c-18.1465 -18.1465 -46.9912 -16.6748 -63.665 0c-17.5527 17.5518 -17.5527 46.1123 0 63.665zM490.253 362.751
l21.2227 -21.2227l-106.109 -106.109c-12.9814 -12.9805 -30.2168 -20.7344 -48.5352 -21.8271c-4.63965 -0.276367 -9.20605 -1.32812 -13.5479 -3.0752l-68.9297 68.9297c1.74512 4.3418 2.79785 8.90625 3.07422 13.5479
c1.09668 18.3174 8.84766 35.5537 21.8281 48.5352l106.11 106.109l21.2207 -21.2207l-81.3506 -81.3496l21.2217 -21.2227l81.3496 81.3506l21.2227 -21.2227l-81.3516 -81.3506l21.2236 -21.2217z" />
    <glyph glyph-name="033-bathtub" unicode="&#xf11f;" 
d="M76.5732 187.37h435.427v-62.3604h-512v62.3604h46.5732v197.632c0 34.7373 28.2607 62.998 62.998 62.998c34.165 0 62.0449 -27.3428 62.9541 -61.293h18.043v-30h-66v30h17.9561c-0.890625 17.4062 -15.3301 31.293 -32.9531 31.293
c-18.1953 0 -32.998 -14.8027 -32.998 -32.998v-197.632zM19.7646 95.0098h472.471v-63.7295c0 -40.1895 -31.6475 -73.1172 -71.335 -75.1807v-20.0996h-30v20h-269.431v-20h-30v20.0898c-39.8477 1.86328 -71.7051 34.8721 -71.7051 75.1904v63.7295zM142.57 291v35h30
v-35h-30zM142.57 235v35h30v-35h-30zM96.5703 291v35h30v-35h-30zM96.5703 235v35h30v-35h-30zM188.67 291v35h30v-35h-30zM188.67 235v35h30v-35h-30z" />
    <glyph glyph-name="001-food" unicode="&#xf100;" 
d="M0 8.125v54.4365h512v-54.4365h-512zM421.032 252.791c42.8496 -42.8486 66.9707 -99.4307 68.2881 -159.817h-466.643c1.31738 60.3857 25.4385 116.969 68.2881 159.817c36.2305 36.2314 82.2793 59.0693 132.146 66.0605
c-3.24902 5.59766 -5.12012 12.0908 -5.12012 19.0156c0 20.958 17.0498 38.0078 38.0078 38.0078s38.0078 -17.0508 38.0078 -38.0078c0 -6.9248 -1.87012 -13.418 -5.12012 -19.0156c49.8652 -6.99121 95.9141 -29.8291 132.146 -66.0605z" />
    <glyph glyph-name="038-snowflake" unicode="&#xf124;" 
d="M495.664 129.447l-48.7402 -27.0576l39.707 -22.9238l-17.8594 -30.9336l-39.707 22.9238l0.9375 -55.7373l-35.7158 -0.599609l-1.29785 77.167l-24.2119 13.9785l1.76465 -27.3613l-35.6475 -2.2998l-3.29688 51.127l-30.0039 17.3223
c-7.67578 -7.45508 -17.1631 -13.0439 -27.7324 -16.0459v-34.6104l42.6279 -28.4209l-19.8145 -29.7207l-22.8135 15.209v-27.9561l66.1787 -39.707l-18.3779 -30.6309l-47.8008 28.6797v-45.8496h-35.7217v45.8496l-47.8008 -28.6797l-18.3779 30.6309l66.1787 39.707
v27.9561l-22.8135 -15.208l-19.8145 29.7207l42.6279 28.4209v34.6104c-10.5693 3.00195 -20.0576 8.59082 -27.7324 16.0459l-30.0039 -17.3223l-3.29688 -51.126l-35.6475 2.29883l1.76465 27.3613l-24.2119 -13.9785l-1.29785 -77.167l-35.7158 0.599609l0.9375 55.7373
l-39.707 -22.9238l-17.8594 30.9336l39.707 22.9258l-48.7393 27.0566l17.3379 31.2305l67.4795 -37.458l24.2119 13.9795l-24.5801 12.1523l15.833 32.0205l45.9248 -22.709l29.9629 17.2998c-1.29785 5.13281 -1.99316 10.5029 -1.99316 16.0352
s0.695312 10.9023 1.99316 16.0352l-29.9629 17.2998l-45.9248 -22.709l-15.833 32.0205l24.5801 12.1533l-24.2119 13.9795l-67.4785 -37.458l-17.3379 31.2305l48.7393 27.0576l-39.707 22.9238l17.8594 30.9336l39.707 -22.9229l-0.9375 55.7373l35.7158 0.599609
l1.29785 -77.167l24.2119 -13.9785l-1.76465 27.3613l35.6475 2.2998l3.29688 -51.127l30.0039 -17.3223c7.67578 7.45508 17.1631 13.0439 27.7324 16.0459v34.6104l-42.6279 28.4209l19.8145 29.7207l22.8135 -15.209v27.9561l-66.1787 39.707l18.3779 30.6309
l47.8008 -28.6797v45.8496h35.7207v-45.8496l47.8008 28.6797l18.3789 -30.6309l-66.1787 -39.707v-27.9561l22.8135 15.209l19.8145 -29.7227l-42.6279 -28.4209v-34.6104c10.5693 -3.00195 20.0576 -8.59082 27.7324 -16.0459l30.0039 17.3223l3.29688 51.126
l35.6475 -2.29883l-1.76465 -27.3613l24.2119 13.9785l1.29785 77.167l35.7158 -0.599609l-0.9375 -55.7373l39.707 22.9238l17.8594 -30.9336l-39.707 -22.9238l48.7393 -27.0566l-17.3379 -31.2305l-67.4785 37.458l-24.2119 -13.9795l24.5801 -12.1533l-15.833 -32.0205
l-45.9248 22.709l-29.9629 -17.2998c1.29785 -5.13281 1.99316 -10.5029 1.99316 -16.0352s-0.695312 -10.9023 -1.99316 -16.0352l29.9629 -17.2998l45.9248 22.709l15.833 -32.0205l-24.5801 -12.1523l24.2119 -13.9795l67.4785 37.458z" />
    <glyph glyph-name="007-menu" unicode="&#xf106;" 
d="M0.179688 -64.001v423.11h349.525v-423.11h-349.525zM248.527 313.119v-55.1885c0 -15.2383 12.3545 -27.5938 27.5938 -27.5938c15.2383 0 27.5938 12.3555 27.5938 27.5938v55.1885c0 5.08008 -4.11816 9.19824 -9.19727 9.19824
c-5.08008 0 -9.19824 -4.11816 -9.19824 -9.19824v-55.1885c0 -5.0791 -4.11914 -9.19727 -9.19824 -9.19727c-5.08008 0 -9.19824 4.11816 -9.19824 9.19727v55.1885c0 5.08008 -4.11816 9.19824 -9.19824 9.19824c-5.0791 0 -9.19727 -4.11816 -9.19727 -9.19824z
M184.141 313.119v-73.584c0 -5.08008 4.11816 -9.19824 9.19824 -9.19824c5.0791 0 9.19824 4.11816 9.19824 9.19824v34.623l19.3164 -38.7324c1.87695 -3.87598 6.19336 -5.93359 10.3838 -4.94531c4.19434 0.983398 7.14062 4.74707 7.0918 9.05469v73.584
c0 5.08008 -4.11914 9.19824 -9.19824 9.19824c-5.08008 0 -9.19824 -4.11816 -9.19824 -9.19824v-34.623l-19.3164 38.7373c-1.87793 3.87598 -6.19336 5.92871 -10.3838 4.94434c-4.19531 -0.987305 -7.1416 -4.75098 -7.0918 -9.05859zM128.952 313.119v-73.584
c0 -5.08008 4.11816 -9.19824 9.19824 -9.19824h27.5938c5.08008 0 9.19824 4.11816 9.19824 9.19824c0 5.0791 -4.11816 9.19824 -9.19824 9.19824h-18.3955v18.3955h18.3955c5.08008 0 9.19824 4.11816 9.19824 9.19824c0 5.0791 -4.11816 9.19824 -9.19824 9.19824
h-18.3955v18.3955h18.3955c5.08008 0 9.19824 4.11914 9.19824 9.19824c0 5.08008 -4.11816 9.19824 -9.19824 9.19824h-27.5938c-5.08008 0 -9.19824 -4.11816 -9.19824 -9.19824zM46.1699 313.119v-73.584c0 -5.08008 4.11816 -9.19824 9.19824 -9.19824
c5.0791 0 9.19824 4.11816 9.19824 9.19824v40.3809l10.5137 -17.5254c1.7832 -2.5957 4.72949 -4.14941 7.88184 -4.14941c3.15332 0 6.09961 1.55371 7.88184 4.14941l10.5146 17.5254v-40.3809c0 -5.08008 4.11816 -9.19824 9.19824 -9.19824
c5.0791 0 9.19727 4.11816 9.19727 9.19824v73.584c0 4.13184 -2.75684 7.75684 -6.74121 8.86133c-3.97949 1.10449 -8.20996 -0.583984 -10.3389 -4.12305l-19.7119 -32.8486l-19.7119 32.8486c-2.12891 3.53906 -6.35938 5.22754 -10.3389 4.12305
c-3.9834 -1.10449 -6.74121 -4.72949 -6.74121 -8.86133zM27.7734 147.555c-5.0791 0 -9.19727 -4.11914 -9.19727 -9.19824c0 -5.08008 4.11816 -9.19824 9.19727 -9.19824h294.338c5.0791 0 9.19824 4.11816 9.19824 9.19824c0 5.0791 -4.11914 9.19824 -9.19824 9.19824
h-294.338zM27.7734 92.3662c-5.0791 0 -9.19727 -4.11816 -9.19727 -9.19824c0 -5.0791 4.11816 -9.19824 9.19727 -9.19824h294.338c5.0791 0 9.19824 4.11914 9.19824 9.19824c0 5.08008 -4.11914 9.19824 -9.19824 9.19824h-294.338zM27.7734 37.1777
c-5.0791 0 -9.19727 -4.11816 -9.19727 -9.19824c0 -5.0791 4.11816 -9.19727 9.19727 -9.19727h294.338c5.0791 0 9.19824 4.11816 9.19824 9.19727c0 5.08008 -4.11914 9.19824 -9.19824 9.19824h-294.338zM27.7734 37.1777zM54.8516 377.506l239.666 70.4941v-70.4941
h-239.666zM54.8516 377.506z" />
    <glyph glyph-name="010-dinner-1" unicode="&#xf109;" 
d="M476.396 246.804h30.627v-30.001h-78.2549l-40.8896 -73.832c-18.1602 -32.792 -44.8994 -60.0605 -77.3271 -78.8604l-72.3438 -41.9404l-87.0146 101.279c3.5332 13.2822 10.0967 29.8223 22.2412 47.5195c3.04102 4.43164 6.56934 21.2891 5.67773 45.834h-79.9678
v30.001h30.625c2.37207 87.6191 69.7451 159.016 155.644 167.711c-2.35547 3.43848 -3.7373 7.5957 -3.7373 12.0781c0 11.8232 9.58594 21.4072 21.4072 21.4072c11.8223 0 21.4082 -9.58398 21.4072 -21.4072c0 -4.4834 -1.38184 -8.63965 -3.7373 -12.0781
c85.8984 -8.69434 153.271 -80.0918 155.644 -167.711zM315.87 172.225l26.1406 44.5781h-89.4102v-27.3955c0 -18.7305 15.2383 -33.9678 33.9678 -33.9678c12.002 0 23.2295 6.43262 29.3018 16.7852zM32.667 386.373v30h58.8008v-30h-58.8008zM32.667 266.366v30.001
h58.8008v-30.001h-58.8008zM4.97754 326.367v30.001h86.4912v-30.001h-86.4912zM172.579 -64.0049l-110.038 128.069l57.6025 49.4912l110.037 -128.069z" />
    <glyph glyph-name="034-fridge" unicode="&#xf120;" 
d="M381.31 448c22.4766 0 40.7627 -18.2861 40.7627 -40.7617v-137.132h-332.145v137.132c0 22.4756 18.2861 40.7617 40.7627 40.7617h250.619zM179.94 313.38v60.9297h-30.417v-60.9297h30.417zM89.9277 239.689h332.145v-262.928
c0 -22.4756 -18.2861 -40.7617 -40.7627 -40.7617h-250.619c-22.4766 0 -40.7627 18.2861 -40.7627 40.7617v262.928zM179.94 135.486v60.9297h-30.417v-60.9297h30.417z" />
    <glyph glyph-name="041-medal" unicode="&#xf127;" 
d="M337.903 89.1777l-44.2842 5.3457l-37.6191 -24.0098l-37.6191 24.0098l-44.2852 -5.34668l-23.4131 37.9922l-42.252 14.4102l-4.68066 44.377l-31.7881 31.2939l15.1143 42.0068l-15.1143 42.0068l31.7891 31.2949l4.68066 44.376l42.252 14.4102l23.4131 37.9922
l44.2842 -5.34668l37.6191 24.0098l37.6191 -24.0078l44.2852 5.34668l23.4131 -37.9932l42.252 -14.4102l4.68066 -44.376l31.7881 -31.2949l-15.1143 -42.0068l15.1143 -42.0059l-31.7891 -31.2949l-4.68066 -44.377l-42.252 -14.4102zM126.571 259.257
c0 -71.3672 58.0615 -129.429 129.429 -129.429s129.429 58.0615 129.429 129.429s-58.0615 129.429 -129.429 129.429s-129.429 -58.0615 -129.429 -129.429zM256 358.667c54.8154 0 99.4102 -44.5947 99.4102 -99.4102c0 -54.8145 -44.5947 -99.4102 -99.4102 -99.4102
s-99.4102 44.5957 -99.4102 99.4102c0 54.8154 44.5947 99.4102 99.4102 99.4102zM211.299 63.4316l34 -21.6992l-33.8281 -105.732l-57.4844 45.9404l-73.4756 -4.04102l40.8135 127.565l9.46191 -3.22559l27.833 -45.167zM381.214 102.238l9.46191 3.22656
l40.8135 -127.565l-73.4756 4.04102l-57.4844 -45.9404l-33.8281 105.732l34 21.6992l52.6787 -6.35938z" />
    <glyph glyph-name="019-clock-circular-outline" unicode="&#xf111;" 
d="M256 448c141.158 0 256 -114.842 256 -256s-114.842 -256 -256 -256s-256 114.842 -256 256s114.842 256 256 256zM256 -9.52734c111.121 0 201.533 90.4004 201.533 201.527s-90.4121 201.527 -201.533 201.527s-201.533 -90.4004 -201.533 -201.527
s90.4121 -201.527 201.533 -201.527zM389.417 199.904c11.6406 0 21.0791 -9.4375 21.0791 -21.0781s-9.43848 -21.0791 -21.0791 -21.0791h-136.126c-11.6406 0 -21.0781 9.43848 -21.0781 21.0791v159.407c0 11.6406 9.4375 21.0781 21.0781 21.0781
s21.0791 -9.4375 21.0791 -21.0781v-138.329h115.047z" />
    <glyph glyph-name="040-tv" unicode="&#xf126;" 
d="M331 27h90v-30h-330v30h90v30h150v-30zM0 87v300h512v-300h-512z" />
    <glyph glyph-name="017-whatsapp-1" unicode="&#xf110;" 
d="M256 448c141.363 0 256 -114.637 256 -256s-114.637 -256 -256 -256s-256 114.637 -256 256s114.637 256 256 256zM261.426 42.9492c84.4414 0 153.184 68.7148 153.219 153.172c0.015625 40.9258 -15.9062 79.4102 -44.8359 108.363
c-28.9258 28.9492 -67.3984 44.9023 -108.383 44.918c-84.4531 0 -153.188 -68.707 -153.223 -153.16c-0.0117188 -26.9961 7.04297 -53.3477 20.4531 -76.5742l-21.7383 -79.375l81.2227 21.3008c22.3789 -12.2031 47.5781 -18.6328 73.2227 -18.6445h0.0625
c0.00390625 0 -0.00390625 0 0 0zM261.426 42.9492zM261.477 323.531c34.0117 -0.0117188 65.9883 -13.2734 90.0312 -37.3359s37.2773 -56.0469 37.2656 -90.0664c-0.03125 -70.1992 -57.1602 -127.309 -127.352 -127.309h-0.0507812
c-22.8516 0.0078125 -45.2656 6.14453 -64.8164 17.7461l-4.65234 2.75781l-48.1992 -12.6406l12.8672 46.9805l-3.02734 4.81641c-12.7461 20.2695 -19.4805 43.6953 -19.4727 67.75c0.03125 70.1953 57.1602 127.301 127.406 127.301zM336.383 141.496
c3.19141 8.94141 3.19141 16.6016 2.23047 18.1992c-0.957031 1.59766 -3.50781 2.55469 -7.33594 4.47266c-3.82812 1.91406 -22.6484 11.1758 -26.1602 12.4492c-3.50781 1.27734 -6.0625 1.91797 -8.61328 -1.91406s-9.89062 -12.4531 -12.1211 -15.0078
c-2.23438 -2.55078 -4.46875 -2.87109 -8.29297 -0.957031c-3.82812 1.91797 -16.1641 5.95703 -30.7891 18.9961c-11.3789 10.1484 -19.0664 22.6836 -21.2969 26.5117c-2.23438 3.83203 -0.0195312 5.70703 1.67969 7.8125
c4.05078 5.02344 8.29297 10.5352 9.57031 13.0898c1.27344 2.55469 0.636719 4.78906 -0.320312 6.70703c-0.957031 1.91406 -8.61328 20.75 -11.8047 28.4141c-3.10547 7.46484 -6.26172 6.45312 -8.61328 6.57031c-2.23047 0.109375 -4.78516 0.132812 -7.33594 0.132812
s-6.69922 -0.957031 -10.2109 -4.78906c-3.50781 -3.82812 -13.3984 -13.0898 -13.3984 -31.9258c0 -18.8398 13.7188 -37.0391 15.6328 -39.5938s26.9961 -41.2109 65.3984 -57.7891c9.13672 -3.94141 16.2656 -6.29688 21.8281 -8.0625
c9.17188 -2.91016 17.5156 -2.5 24.1133 -1.51562c7.35547 1.10156 22.6484 9.26172 25.8398 18.1992zM336.383 141.496z" />
    <glyph glyph-name="011-cook" unicode="&#xf10a;" 
d="M78.5811 -64v15.7988h332.82v-15.7988h-332.82zM240.265 -37.3027h-44.9619h-6.29785h-53.6533l29.9873 44.9678l26.8164 -40.2412l26.7979 40.2412l25.6504 -38.4805l25.6396 38.4805l26.8076 -40.2412l26.8076 40.2412l29.9795 -44.9678h-53.6455h-6.31445h-44.9365
h-8.67676zM422.49 193.896c9.5166 3.3457 41.4629 0 41.4941 -0.0166016v-12.9023s-31.4082 1.07715 -38.1328 -2.85645c-6.75684 -3.90234 -14.0557 -37.085 -19.6689 -37.085h-2.56934c-1.39746 -36.1055 -6.31445 -76.2676 -20.2412 -88.9883h13.9268v-20.5586h-287.524
v20.5586h16.8682c-13.5928 12.3877 -18.5576 50.7422 -20.0889 86.1318h-0.777344c-5.63965 0 -12.8955 33.1689 -19.6689 37.085c-6.74121 3.91895 -38.0918 2.82324 -38.0918 2.82324v12.9131s31.8994 3.37891 41.4873 0
c5.19336 -1.83203 11.6582 -7.43945 16.5361 -12.2139c0.174805 13.0479 0.610352 22.1758 0.728516 24.7139h-12.4756v15.5771h319.979v-15.5771h-11.0068c0.0947266 -2.49023 0.506836 -11.2139 0.712891 -23.7607c4.96484 5.04297 12.5791 12.0615 18.5127 14.1562z
M145.703 78.3145c6.04199 -12.0703 12.7139 -18.6807 12.7139 -18.6807s-0.37207 9.2793 -1.94238 22.0156c-0.864258 6.28027 -1.83984 13.6562 -2.91113 21.4766c-1.11719 7.90039 -2.3877 15.3252 -3.48926 24.1748c-0.553711 4.61426 -1.43457 8.21582 -1.57812 12.4355
c-0.34082 4.12402 -0.666016 8.18457 -1.22168 12.1504c-1.10352 7.96191 -1.49219 15.3203 -2.04688 21.7617c-0.857422 6.50293 -0.84082 11.7207 -1.21289 15.6152c-0.389648 3.87109 -0.341797 6.11523 -0.341797 6.11523s-4.43457 -7.88281 -7.11426 -21.0654
c-0.618164 -3.2832 -1.31738 -6.85254 -2.04688 -10.5957c-0.878906 -3.80664 -0.697266 -7.77246 -1.15723 -11.9277c-0.341797 -4.12598 -0.484375 -8.4082 -0.603516 -12.8174c-0.237305 -4.34473 -0.206055 -9.29395 0.214844 -13.3555
c0.34082 -4.25195 0.436523 -8.62891 1.5459 -13.1338c0.936523 -4.36328 1.52246 -8.89844 2.90332 -12.8184c2.25879 -8.08887 5.24902 -15.3535 8.28809 -21.3506zM184.912 318.382c-1.79102 3.16504 -3.47949 6.46289 -4.21289 9.31543
c-2.23633 5.88574 -2.33887 11.8818 -2.4502 17.3223c0.12793 10.9922 2.91211 20.3828 6.02832 27.8857c6.2666 15.0615 14.0625 22.7705 14.0625 22.7705s-1.28516 -10.7783 -2.25293 -25.5459c-0.341797 -7.40625 -0.506836 -15.8691 0.730469 -24.0391
c0.5625 -4.06055 1.67188 -8.07422 3.10059 -11.5635c0.601562 -2.03027 1.49023 -3.1416 2.125 -4.44922c0.277344 -1.14258 2.89453 -3.6875 4.21094 -5.49609l0.270508 -0.373047l0.0859375 -0.0957031c-0.293945 0.325195 -0.444336 0.484375 -0.540039 0.603516
l0.183594 -0.229492l0.761719 -0.975586l1.53809 -1.98242c0.959961 -1.33301 2.05371 -2.57812 2.86328 -3.99805c1.39551 -2.88574 3.22754 -5.64648 4.09277 -8.65234c2.19727 -5.86133 2.85449 -11.9033 2.85449 -17.3604
c0.231445 -5.54395 -0.761719 -10.6748 -1.76758 -15.3545c-0.991211 -4.71191 -2.51367 -8.93066 -4.07617 -12.6816c-6.26562 -15.1094 -14.1494 -22.7383 -14.1494 -22.7383s1.43555 10.7617 2.4043 25.5137c0.34082 7.35938 0.443359 15.8066 -0.904297 23.8809
c-0.474609 4.10742 -1.98242 7.84277 -3.34766 11.3652c-0.570312 1.88672 -1.83984 3.25195 -2.61719 4.94043l-4.21875 5.08398c-1.6416 2.37207 -2.91113 3.34766 -4.77539 6.85352zM206.073 324.72c0.0166016 -0.0166016 -0.277344 0.325195 0 0v0zM231.333 370.688
c-1.76758 3.17969 -3.45703 6.47949 -4.19434 9.33301c-2.25391 5.87695 -2.33984 11.873 -2.4668 17.3135c0.126953 11.001 2.91113 20.3838 6.04297 27.8945c6.2666 15.0527 14.0713 22.7705 14.0713 22.7705s-1.30078 -10.7871 -2.2627 -25.5693
c-0.34082 -7.4082 -0.507812 -15.8467 0.714844 -24.0391c0.568359 -4.06055 1.67188 -8.0498 3.09961 -11.5635c0.603516 -2.03125 1.49902 -3.11816 2.12598 -4.43457c0.277344 -1.13379 2.89453 -3.7041 4.20996 -5.48828l0.294922 -0.37207l0.0634766 -0.102539
c-0.293945 0.332031 -0.4375 0.490234 -0.539062 0.601562l0.212891 -0.269531l0.762695 -0.975586l1.51367 -1.9502c0.952148 -1.33301 2.0459 -2.58594 2.85547 -3.99805c1.39453 -2.89355 3.23535 -5.6543 4.09277 -8.65234
c2.18848 -5.86914 2.85449 -11.9121 2.85449 -17.3691c0.222656 -5.53516 -0.761719 -10.666 -1.77637 -15.3457c-0.982422 -4.71191 -2.50488 -8.93848 -4.06836 -12.6904c-6.26465 -15.1006 -14.1396 -22.7373 -14.1396 -22.7373s1.42676 10.7695 2.40332 25.5215
c0.34082 7.35156 0.435547 15.7979 -0.912109 23.8721c-0.46875 4.10938 -1.9834 7.84473 -3.34668 11.374c-0.571289 1.87793 -1.83301 3.24316 -2.61816 4.93262l-4.21875 5.08398c-1.64258 2.37109 -2.91211 3.3457 -4.77539 6.86035zM252.494 377.032
c0.0322266 -0.015625 -0.253906 0.310547 0 0v0zM288.676 323.252c-1.76172 3.1875 -3.45801 6.47949 -4.1875 9.32422c-2.25293 5.87793 -2.33203 11.874 -2.45898 17.3145c0.126953 11.001 2.90234 20.3828 6.04395 27.8857
c6.2666 15.0615 14.0537 22.7793 14.0537 22.7793s-1.26855 -10.7871 -2.25098 -25.5547c-0.349609 -7.40723 -0.509766 -15.8457 0.712891 -24.0391c0.570312 -4.05957 1.66406 -8.04883 3.1084 -11.5635c0.586914 -2.03125 1.49023 -3.11816 2.12598 -4.43457
c0.269531 -1.13379 2.88574 -3.70312 4.20312 -5.48828l0.285156 -0.37207l0.0957031 -0.135742c-0.285156 0.325195 -0.429688 0.490234 -0.524414 0.602539l0.174805 -0.246094l0.761719 -0.974609l1.52246 -1.94238c0.951172 -1.33301 2.03125 -2.58594 2.85645 -3.99805
c1.39453 -2.89355 3.23535 -5.6543 4.09082 -8.66016c2.19043 -5.86133 2.85645 -11.9043 2.85645 -17.3604c0.220703 -5.53613 -0.761719 -10.6748 -1.77734 -15.3467c-0.983398 -4.71191 -2.50586 -8.93848 -4.06055 -12.6904
c-6.28125 -15.1084 -14.1494 -22.7373 -14.1494 -22.7373s1.42871 10.7705 2.39648 25.5137c0.331055 7.35938 0.428711 15.8066 -0.905273 23.8799c-0.475586 4.1084 -1.98242 7.84473 -3.34668 11.374c-0.571289 1.87891 -1.83984 3.24414 -2.61719 4.93262
l-4.21973 5.08398c-1.64941 2.37305 -2.91895 3.34766 -4.79004 6.85352zM309.868 329.604c0.0146484 -0.0146484 -0.285156 0.30957 0 0v0z" />
    <glyph glyph-name="028-youtube" unicode="&#xf11a;" 
d="M0.0615234 375.157c0 42.8896 34.7666 77.6562 77.6562 77.6562h324.92c42.8896 0 77.6621 -34.7666 77.6621 -77.6562v-178.502c0 -42.8906 -34.7725 -77.6572 -77.6621 -77.6572h-324.92c-42.8896 0 -77.6562 34.7666 -77.6562 77.6572v178.502zM181.548 189.428
l146.291 96.4785l-146.291 96.4814v-192.96zM181.548 189.428z" />
    <glyph glyph-name="003-covered-food-tray-on-a-hand-of-hotel-room-service" unicode="&#xf102;" 
d="M173.742 185.431c-9.86719 0 -19.9375 0 -30.3672 -0.000976562c-0.352539 4.67285 -0.523438 9.35938 -0.523438 14.1172c0 90.0771 65.624 164.265 150.085 174.093c-5.46777 5.10254 -8.90527 12.3203 -8.90527 20.3838c0 15.4678 12.5459 27.9844 27.999 27.9844
c15.4375 0 27.9678 -12.5166 27.9375 -27.9844c0 -8.04785 -3.4541 -15.2822 -8.90723 -20.3838c84.4678 -9.82812 150.109 -84.0156 150.109 -174.093c0 -4.77246 -0.203125 -9.52246 -0.561523 -14.21c-106.955 0 -183.392 0.0615234 -282.148 0.0771484
c0.421875 4.57812 0.757812 9.125 1.45996 13.6328c1.00879 12.4287 3.34473 24.5156 5.72754 36.3662c1.58594 5.7666 3.03809 11.5547 4.35059 17.2812c1.92285 5.50684 3.80469 10.96 5.66406 16.335c4.5332 10.2734 8.88379 20.3984 14.7041 29.0244
c1.36035 2.24121 2.70312 4.43652 4 6.62402c1.60254 1.98535 3.15723 3.9375 4.67285 5.87598c3.11914 3.80371 5.67969 7.93652 8.97656 11.2266c6.59375 6.43848 12.1396 13.1572 18.2656 17.8438c5.875 4.91406 10.8125 9.71094 15.4688 12.75
c9.01465 6.64062 14.1719 10.7344 14.1719 10.7344s-6.04785 -2.15527 -16.7041 -6.44434c-5.43652 -1.92188 -11.4668 -5.32617 -18.499 -9.24902c-7.2959 -3.53223 -14.4619 -9.23535 -22.5615 -15.2344c-4.06445 -2.92188 -7.59473 -6.90723 -11.665 -10.5859
c-1.92871 -1.93848 -3.92969 -3.87598 -5.92969 -5.87598c-1.75098 -2.24219 -3.53906 -4.47559 -5.34375 -6.78027c-7.60156 -8.94629 -13.9688 -19.6328 -19.6641 -31.0713c-2.5166 -5.8584 -5.03906 -11.8584 -7.61719 -17.8896
c-2.01562 -6.17969 -3.9375 -12.5 -5.71094 -18.8984c-2.91406 -12.8281 -5.7666 -26.0156 -7.09375 -39.1494c-0.71875 -5.53906 -1.05469 -11.0234 -1.39062 -16.499zM112.062 139.728v35.2822h399.938v-35.2822h-399.938zM347.811 114.682
c20.4062 9.88965 28.8916 -14.4219 18.4072 -21.4053c-10.5312 -7.0166 -98.4678 -67.1729 -112.906 -70.0332c-14.4297 -2.82812 -120.734 0 -133.007 0c-12.2275 0 -24.4854 -20.9844 -24.4854 -20.9844l-15.7568 99.7344l59.5381 21.4375
s89.6641 3.70215 99.9521 3.70215c10.2891 0 18.3838 -20.9834 -0.225586 -25.1396c-18.5771 -4.17188 -66.5 -17.5 -66.5 -17.5l83.7803 -5.24902s70.876 25.5625 91.2031 35.4375zM0 91.2734l68.3984 12.0332l22.8203 -124.235l-91.2188 -17.0791v129.281z" />
    <glyph glyph-name="027-facebook" unicode="&#xf119;" 
d="M134.941 175.309c-4.56152 0 -8.25781 3.69824 -8.25781 8.25977v83.9746c0 4.56152 3.69629 8.25781 8.25781 8.25781h58.918v62.3525c-1.17383 6.75098 -6.08789 45.6934 29.2607 78.2168c31.9023 29.3486 72.2891 31.6299 83.9082 31.6299
c1.5459 0 2.59473 -0.0380859 3.06738 -0.0615234h66.9639c4.5625 0 8.25879 -3.69629 8.25879 -8.25781v-78.0781c0 -4.56055 -3.69629 -8.25781 -8.25879 -8.25781h-48.5898c-17.0713 0 -25.7256 -8.15137 -25.7256 -24.2246v-53.3203h74.3154
c2.35352 0 4.59668 -1.00586 6.16406 -2.76367c1.56543 -1.75586 2.30762 -4.09863 2.03809 -6.43945l-9.79883 -85.0615c-0.479492 -4.16699 -4.00879 -7.31445 -8.2041 -7.31445h-64.5186v-229.963c0 -4.56152 -3.69629 -8.25781 -8.25781 -8.25781h-95.1592
c-4.56152 0 -8.25781 3.69629 -8.25781 8.25781v231.051h-56.124z" />
    <glyph glyph-name="039-couch" unicode="&#xf125;" 
d="M271 146.55v30.0498h150.93v-30.0498h-150.93zM90.0703 146.55v30.0498h150.93v-30.0498h-150.93zM416.911 367.538c33.1035 0 60.0361 -26.9316 60.0361 -60.0361v-30.2617c-30.7646 -2.55957 -55.0205 -28.3975 -55.0205 -59.8105v-10.8281h-331.854v10.8281
c0 31.4131 -24.2559 57.251 -55.0205 59.8105v30.2617c0 33.1045 26.9326 60.0361 60.0361 60.0361h321.823zM481.964 247.466c16.5625 0 30.0361 -13.4736 30.0361 -30.0361v-160.947h-35.0518v-40.0205h-30v40.0205h-381.896v-40.0205h-30v40.0205h-35.0518v160.947
c0 16.5625 13.4736 30.0361 30.0361 30.0361c16.5615 0 30.0361 -13.4736 30.0361 -30.0361v-100.876h391.855v100.876c0 16.5625 13.4746 30.0361 30.0361 30.0361z" />
    <glyph glyph-name="006-hot-coffee-rounded-cup-on-a-plate-from-side-view" unicode="&#xf105;" 
d="M65.1318 -41.7852c-11.7695 0 -21.3174 9.54688 -21.3174 21.3398h365.312c0 -11.793 -9.54688 -21.3398 -21.3398 -21.3398h-69.7158c-0.96875 -6.09766 -5.97949 -10.8242 -12.3604 -10.8242h-158.504c-6.35645 0 -11.3906 4.75 -12.3594 10.8242h-69.7158z
M493.094 177.549c9.19336 -7.4209 19.9229 -21.7422 18.8115 -47.5488c-2.57617 -58.9395 -71.2285 -75.7422 -113.909 -76.5693c-19.5908 -27.9336 -49.1318 -48.9434 -93.6797 -61.4453h-174.077c-112.468 31.6211 -130.239 116.367 -130.239 233.821h434.556
c0 -12.2188 -0.259766 -23.9639 -0.732422 -35.4492c16.4717 1.81934 41.499 1.58398 59.2705 -12.8086zM415.887 87.1309c24.8135 3.4502 62.7207 13.7061 64.0674 44.2393c0.662109 15.1016 -5.08105 19.7812 -6.92383 21.293
c-10.0439 8.17773 -29.9189 6.97168 -41.4521 5.08105c-2.66992 -25.9717 -7.51465 -49.6045 -15.6914 -70.6133zM177.031 242.302c0 0 34.3857 17.4648 7.08984 61.2793c-74.3945 100.557 53.1738 133.052 53.1738 133.052
c-38.9463 -29.6826 -45.8945 -62.5322 -15.4561 -118.518c37.9072 -69.7393 -44.8076 -75.8135 -44.8076 -75.8135zM232.781 247.879c20.6543 14.416 24.9316 31.1484 10.5166 60.6182c-18.0088 36.6543 24.6484 38.001 24.6484 38.001s-18.0557 -8.24805 -4.96289 -31.3604
c36.0635 -53.292 -30.2021 -67.2588 -30.2021 -67.2588z" />
  </font>
</defs></svg>
